50142 719769 509
417698 780909 509
321946 283380 389
390853 854521 525
748092 211406 509
189291 639888 509
468013 756071 509
720442 825964 468
575665 944654 525
137024 153219 375
288851 303772 371
936308 201857 525
99362 388910 443
988197 897515 507
613206 17866 470
291846 757044 509
260450 852642 525
877293 374473 525
363124 856264 525
832452 641666 504
567019 675887 509
486257 477319 413
808779 409578 509
136966 469722 449
875314 474338 525
758988 761688 380
916885 91786 525
760196 237400 509
853861 943319 507
59687 385576 443
313238 859892 525
728182 974994 525
8237 781162 509
893104 430726 525
916258 347006 525
944146 510311 525
147561 179044 383
523147 524505 302
151117 313837 443
65279 704738 509
279650 472997 449
744199 223677 509
638291 603068 509
421 690584 509
41027 219063 386
428565 776387 509
668116 159032 509
586223 365743 470
13196 176330 383
652989 629997 416
49498 233628 443
950026 965851 414
823732 608012 509
382763 49186 443
408694 569934 470
756664 222543 509
111940 39005 354
326140 961324 525
180694 116358 383
103157 294515 443
300911 71298 443
461938 534387 470
330469 651307 509
182174 411893 449
579669 79818 470
495970 436345 444
913273 129618 525
348635 132987 443
382023 485077 449
601189 222457 470
953713 618068 525
508434 950638 525
828709 482335 509
436963 902453 525
163648 304769 443
818177 525647 509
604009 731745 509
927831 302584 525
582140 723029 509
546621 45508 470
13120 185894 383
394489 283003 441
17206 309764 443
325216 456474 449
339726 525733 470
368373 430843 449
349680 404105 436
796540 392145 509
668263 668270 186
55938 82773 351
141453 974168 525
566013 422481 470
815277 628383 504
72134 822344 509
14595 100169 351
104956 378454 443
474142 298800 449
23514 702013 509
107706 414121 449
434373 942778 525
234472 890498 525
543265 652984 509
653150 934577 525
299790 527170 470
199494 654417 509
758594 507204 509
679587 795797 504
209439 778709 509
632186 50427 509
382751 306877 441
941176 704460 525
731705 122456 509
184889 604793 470
688307 283006 509
402290 434092 449
718180 151018 509
760798 663140 504
214051 818605 509
831951 711201 468
721089 361303 509
202623 580888 470
344376 847691 525
309177 492249 449
831061 846257 525
805034 872994 525
713871 813515 468
290093 676386 509
406390 313287 441
694752 366992 509
378912 577261 470
296209 859031 525
117415 892547 525
963444 325571 525
816260 885514 525
999734 988915 440
840546 275357 525
783158 146158 509
845590 119504 525
231882 168569 443
395192 878937 525
354271 847364 525
602438 238585 470
781708 999725 525
423628 665470 509
375982 308893 441
533224 490806 470
682970 478225 509
136877 922541 525
747590 594138 509
873594 714189 525
735809 479958 509
642610 565897 509
177719 410736 449
701126 42468 509
249979 712637 509
175920 917892 525
160140 995092 525
348365 317822 441
273357 446427 449
824943 252207 509
36204 41015 306
450394 190034 449
432342 300782 449
507941 895626 525
758895 369012 509
342192 830586 509
325988 184291 443
854255 978030 507
2403 179525 383
223784 951219 525
106277 633145 509
558379 605356 434
430190 66572 449
360754 633114 509
44289 529878 470
42898 281634 443
16858 32794 308
532718 465487 470
11572 100357 351
214486 7429 383
754138 724600 424
355988 403312 436
182814 550400 470
262825 16593 443
116186 46135 354
90761 871506 525
54654 131957 354
481959 684242 509
696832 613571 509
490009 707240 509
222173 172838 386
856715 465985 525
359959 469335 449
659477 818807 504
495695 230437 449
438412 932139 525
631301 412592 509
22795 131382 354
63865 919949 525
505439 965932 525
